Reporting with R Markdown
…
means <- atmos %>% 
  filter(year == year) %>%
  group_by(long, lat) %>%
  summarize(temp = mean(temp, na.rm = TRUE), 
         pressure = mean(pressure, na.rm = TRUE),
         ozone = mean(ozone, na.rm = TRUE),
         cloudlow = mean(cloudlow, na.rm = TRUE),
         cloudmid = mean(cloudmid, na.rm = TRUE),
         cloudhigh = mean(cloudhigh, na.rm = TRUE)) %>%
  ungroup()

# Inspect the means variable
means

## # A tibble: 576 x 8
##      long        lat     temp pressure    ozone cloudlow cloudmid
##     <dbl>      <dbl>    <dbl>    <dbl>    <dbl>    <dbl>    <dbl>
##  1 -113.8 -21.200000 296.1083     1000 268.2500 37.17361 5.777778
##  2 -113.8 -18.704348 296.3069     1000 265.7500 39.36111 4.055556
##  3 -113.8 -16.208696 296.7736     1000 262.7778 40.22222 3.819444
##  4 -113.8 -13.713043 297.2722     1000 260.4722 38.09028 3.472222
##  5 -113.8 -11.217391 297.7347     1000 258.6667 34.59722 3.125000
##  6 -113.8  -8.721739 298.1514     1000 257.7222 31.29861 3.222222
##  7 -113.8  -6.226087 298.5028     1000 256.6667 27.79861 3.986111
##  8 -113.8  -3.730435 298.5028     1000 256.3333 28.05556 5.006944
##  9 -113.8  -1.234783 298.2208     1000 256.8056 26.04167 5.298611
## 10 -113.8   1.260870 298.6375     1000 256.3611 30.94444 7.236111
## # ... with 566 more rows, and 1 more variables: cloudhigh <dbl>
…
